Frito Lay Analysis
…
employee_data %>% group_by(JobRole) %>% count(MonthlyIncome)

## # A tibble: 850 x 3
## # Groups:   JobRole [9]
##    JobRole                   MonthlyIncome     n
##    <chr>                             <int> <int>
##  1 Healthcare Representative          4014     1
##  2 Healthcare Representative          4035     1
##  3 Healthcare Representative          4069     1
##  4 Healthcare Representative          4244     1
##  5 Healthcare Representative          4448     1
##  6 Healthcare Representative          4523     1
##  7 Healthcare Representative          4553     1
##  8 Healthcare Representative          4617     1
##  9 Healthcare Representative          4741     1
## 10 Healthcare Representative          4777     1
## # ... with 840 more rows
…
